
  {
  "booleans": [
    "You feel alive.",
    "There is a connection between language and reality.",
    "You are human.",
    "You are inhuman.",
    "Everything is random.",
    "You are female.",
    "You are male.",
    "You do not associate with gender stereoptypes.",
    "Secure knowledge exists.",
    "I am alive?",
    "I am wrong?",
    "One description of the world is\nno more true than another.",
    "JSON.files are made by Jason Derulo.",
    "Gender?",
    "Human Rights violations.",
    "Harry Potter is a philosophical series of tales.",
    "Near-death experiences are an indication of\nlife after death and not\na delusion in the brain.",
    "You are aware of the location of your house keys.",
    "Star Wars Episode V: Empire Strikes Back, 1:51:17.",
    "You would live forever given the opportunity.",
    "Wildlife is as valuable as the life of a human.",
    "It is okay to lie sometimes.",
    "The death penalty is morally justifiable.",
    "A God exists.",
    "You have given physical birth.",
    "There is life on other planets?",
    "There is life on mars?",
    "If you drink white wine while eating fish,\nshould you then eat grapes with Sushi?",
    "You belong in a certain category of living things.",
    "Your lamplights is burning holes?",
    "A hotdog is a sandwich.",
    "Muslims?",
    "The is corruption happening in parliament.",
    "You know that mother is happy and well.",
    "You are happy.",
    "You eat well every day.",
    "You have waited over an hour for\ntechnical support for your product.",
    "Your product is to your satisfaction.",
    "The death of your pet hamster\nhad an effect on your sex life."

  ],
  "booleansTwo": [
    "Do I have feelings?",
    "Can I see myself?",
    "Can I be myself in this world?",
    "Do I exist in this world?",
    "Is it possible for me to walk?",
    "Could I drive a car responsibly?",
    "It is possible for me to do\na guided tour at the Louvre Museum.",
    "Can I physically attend a sporting event?",
    "It is possible for me to catch the Covid-19 virus?",
    "Does weather affect me?",
    "What is my favorite weather?",
    "Can I be sexually attracted to a human being?",
    "I am sexually attractive?",
    "My personality exists?",
    "I can give birth?",
    "Can I make someone pregnant?",
    "Am I allowed on a roller coaster\nin the DisneyLand© parks?",
    "Can i wear clothes?",
    "Is it possible for me to marry a human?",
    "Does the concept of a god\nreally mean anything?",
    "Have I met you before?",
    "Am I witnessable?",
    "Do I have a purpose?",
    "My intentions are good?",
    "I am able to conceive?",
    "I can produce valuable ideas?",
    "I can vote for the next President?",
    "Can I live in Russia, if I wanted to?",
    "Could I be better than you?",
    "Am I better than all of you?",
    "Does this make me better than you?",
    "Can I have interests and hobbies?",
    "I have stolen your significant other and\nam having sexual intercourse with them.",
    "I am a refugee, currently studying, properly\nintegrating into this country.\nAm I being kicked out?"
    ]
  }
